<?xml version="1.0" encoding="utf-8"?>
<!-- Generator: Adobe Illustrator 15.0.0, SVG Export Plug-In . SVG Version: 6.00 Build 0)  -->
<!DOCTYPE svg PUBLIC "-//W3C//DTD SVG 1.1//EN" "http://www.w3.org/Graphics/SVG/1.1/DTD/svg11.dtd">
<svg version="1.1" id="Layer_1" xmlns="http://www.w3.org/2000/svg" xmlns:xlink="http://www.w3.org/1999/xlink" x="0px" y="0px"
	 width="345px" height="80px" viewBox="0 0 345 80" enable-background="new 0 0 345 80" xml:space="preserve">
<path fill="#FFFFFF" d="M275.112,61.747c1.062-0.996,2.045-2.064,3.073-3.088c1.685-1.671,4.459-1.671,6.143,0
	c1.03,1.023,2.052,2.058,3.082,3.088c1.175,1.176,3.094,1.176,4.275,0l4.434-4.432V42.812c-1.171,1.17-2.334,2.34-3.503,3.51
	c-1.817,1.664-4.324,1.703-6.136,0c-0.734-0.702-1.431-1.443-2.152-2.159c-1.697-1.678-4.444-1.678-6.143,0
	c-0.715,0.716-1.423,1.444-2.145,2.159c-1.69,1.671-4.458,1.678-6.141,0l-3.511-3.51v14.503c1.478,1.478,2.955,2.954,4.438,4.432
	C272.045,62.956,273.883,62.89,275.112,61.747"/>
<path fill="#FFFFFF" d="M276.041,62.675c-1.691,1.686-4.451,1.699-6.143,0l-3.508-3.507v6.789c1.322,1.324,2.646,2.646,3.969,3.97
	c1.458,1.443,3.764,1.437,5.213,0c0.877-0.868,1.744-1.745,2.613-2.606c1.713-1.696,4.434-1.696,6.145,0
	c0.873,0.861,1.735,1.738,2.612,2.606c1.45,1.437,3.754,1.443,5.206,0l3.971-3.97v-6.789c-1.171,1.168-2.334,2.345-3.503,3.507
	c-1.705,1.69-4.433,1.69-6.137,0c-1.027-1.021-2.05-2.052-3.081-3.08c-1.188-1.176-3.094-1.176-4.281,0
	C278.086,60.617,277.07,61.653,276.041,62.675"/>
<path fill="#FFFFFF" d="M270.361,77.652c1.442,1.431,3.775,1.423,5.213,0c0.875-0.869,1.743-1.743,2.612-2.612
	c1.711-1.698,4.438-1.69,6.144,0c0.874,0.869,1.735,1.743,2.612,2.612c1.437,1.417,3.774,1.438,5.206,0l3.969-3.977v-6.783
	c-1.169,1.163-2.333,2.332-3.501,3.496c-1.704,1.698-4.433,1.698-6.136,0c-0.868-0.869-1.737-1.745-2.618-2.614
	c-1.438-1.423-3.771-1.423-5.213,0c-0.878,0.869-1.739,1.745-2.607,2.614c-1.698,1.698-4.444,1.698-6.142,0l-3.51-3.496v6.783
	C267.713,74.999,269.03,76.329,270.361,77.652"/>
<path fill="#FFFFFF" d="M323.646,46.321c0.722-0.721,1.438-1.442,2.159-2.158c1.696-1.684,4.431-1.684,6.128,0
	c0.722,0.716,1.437,1.438,2.16,2.158c1.688,1.679,4.437,1.686,6.134,0l3.509-3.509v14.502c-1.478,1.479-2.953,2.956-4.437,4.433
	c-1.184,1.176-3.095,1.176-4.278,0c-1.029-1.029-2.052-2.06-3.088-3.088c-1.69-1.678-4.451-1.672-6.135,0.007
	c-1.028,1.021-2.053,2.052-3.081,3.081c-1.182,1.176-3.089,1.176-4.271,0c-1.028-1.029-2.053-2.06-3.082-3.081
	c-1.69-1.679-4.45-1.685-6.142-0.007c-1.029,1.023-2.045,2.059-3.073,3.088c-1.184,1.176-3.081,1.176-4.265,0l-4.444-4.433V42.812
	c1.17,1.17,2.339,2.34,3.517,3.509c1.697,1.679,4.424,1.686,6.12,0c0.715-0.721,1.431-1.442,2.146-2.158
	c1.699-1.678,4.445-1.684,6.142,0c0.715,0.716,1.432,1.444,2.146,2.158C319.207,48.007,321.949,48,323.646,46.321"/>
<path fill="#FFFFFF" d="M306.611,69.927c0.874-0.868,1.744-1.745,2.612-2.606c1.711-1.696,4.432-1.696,6.142,0
	c0.876,0.861,1.743,1.738,2.621,2.606c1.451,1.444,3.741,1.444,5.199,0c0.875-0.868,1.745-1.745,2.619-2.606
	c1.711-1.696,4.426-1.696,6.129,0c0.875,0.861,1.745,1.738,2.619,2.606c1.451,1.438,3.757,1.444,5.207,0l3.978-3.971v-6.79
	c-1.171,1.171-2.333,2.347-3.509,3.509c-1.704,1.691-4.438,1.691-6.136,0c-1.036-1.021-2.059-2.052-3.087-3.08
	c-1.19-1.177-3.083-1.177-4.271,0c-1.03,1.028-2.054,2.06-3.088,3.08c-1.696,1.691-4.432,1.691-6.136,0
	c-1.03-1.021-2.051-2.052-3.08-3.08c-1.184-1.177-3.089-1.177-4.271,0c-1.028,1.028-2.051,2.06-3.081,3.08
	c-1.696,1.687-4.431,1.698-6.12,0l-3.517-3.509v6.79c1.329,1.325,2.653,2.646,3.976,3.971
	C302.867,71.371,305.16,71.371,306.611,69.927"/>
<path fill="#FFFFFF" d="M339.76,77.652c-1.437,1.431-3.764,1.423-5.207,0c-0.874-0.869-1.744-1.743-2.619-2.612
	c-1.703-1.698-4.425-1.698-6.129,0c-0.874,0.869-1.744,1.743-2.619,2.612c-1.444,1.431-3.756,1.431-5.199,0
	c-0.878-0.869-1.745-1.743-2.621-2.612c-1.703-1.698-4.438-1.698-6.142,0c-0.868,0.869-1.738,1.743-2.612,2.612
	c-1.43,1.423-3.757,1.431-5.194,0l-3.976-3.977v-6.783c1.168,1.163,2.34,2.332,3.517,3.496c1.704,1.698,4.416,1.703,6.12,0
	c0.875-0.869,1.739-1.745,2.614-2.614c1.435-1.423,3.769-1.423,5.206,0c0.875,0.869,1.737,1.745,2.612,2.614
	c1.704,1.698,4.439,1.698,6.136,0c0.874-0.869,1.744-1.745,2.627-2.614c1.437-1.423,3.755-1.423,5.199,0
	c0.874,0.869,1.746,1.745,2.62,2.614c1.697,1.698,4.432,1.698,6.136,0l3.509-3.496v6.783
	C342.414,74.999,341.091,76.329,339.76,77.652"/>
<polygon fill="#FFFFFF" points="297.429,29.286 297.429,22.874 301.082,22.874 300.916,23.925 298.72,23.925 298.72,25.412 
	300.556,25.412 300.556,26.463 298.738,26.463 298.738,28.179 301.165,28.179 301.165,29.286 "/>
<path fill="#FFFFFF" d="M305.289,29.526c-0.287-0.121-0.544-0.332-0.664-0.573c-0.094,0.093-0.193,0.186-0.286,0.25
	c-0.23,0.166-0.562,0.258-0.951,0.258c-1.052,0-1.623-0.536-1.623-1.476c0-1.107,0.766-1.625,2.27-1.625
	c0.093,0,0.177,0,0.277,0.009v-0.193c0-0.525-0.101-0.701-0.554-0.701c-0.396,0-0.858,0.194-1.366,0.535l-0.526-0.885
	c0.25-0.157,0.435-0.25,0.767-0.388c0.461-0.193,0.858-0.276,1.293-0.276c0.791,0,1.337,0.294,1.521,0.82
	c0.064,0.194,0.092,0.342,0.083,0.848l-0.029,1.587c-0.008,0.516,0.029,0.738,0.443,1.052L305.289,29.526z M304.236,27.219
	c-0.857,0-1.151,0.157-1.151,0.72c0,0.369,0.229,0.618,0.543,0.618c0.23,0,0.461-0.12,0.646-0.324l0.018-1.014H304.236z"/>
<path fill="#FFFFFF" d="M308.297,29.434c-0.581,0-1.219-0.184-1.91-0.544l0.443-0.904c0.378,0.231,1.034,0.536,1.567,0.536
	c0.352,0,0.628-0.231,0.628-0.536c0-0.322-0.23-0.489-0.729-0.581l-0.555-0.101c-0.312-0.057-0.699-0.277-0.866-0.48
	c-0.165-0.204-0.268-0.545-0.268-0.849c0-0.923,0.729-1.542,1.827-1.542c0.756,0,1.256,0.231,1.688,0.444l-0.407,0.83
	c-0.47-0.24-0.812-0.342-1.161-0.342c-0.36,0-0.601,0.186-0.601,0.462c0,0.239,0.157,0.369,0.592,0.48l0.572,0.148
	c0.581,0.147,0.773,0.322,0.939,0.535c0.176,0.221,0.259,0.489,0.259,0.803C310.317,28.77,309.506,29.434,308.297,29.434"/>
<path fill="#FFFFFF" d="M312.587,29.396c-0.627,0-1.126-0.276-1.274-0.692c-0.072-0.203-0.081-0.295-0.081-0.729v-2.563h-0.472
	v-0.85h0.472c0-0.462,0-0.767,0.046-1.117l1.254-0.313c-0.045,0.434-0.074,0.95-0.074,1.43h1.107l-0.314,0.85h-0.793v2.37
	c0,0.599,0.111,0.756,0.536,0.756c0.109,0,0.221-0.027,0.442-0.092l0.156,0.739C313.233,29.332,312.91,29.396,312.587,29.396"/>
<path fill="#FFFFFF" d="M317.847,29.424c-0.73,0-1.541-0.212-2.188-0.581l0.48-1.006c0.6,0.314,1.117,0.518,1.762,0.518
	c0.738,0,1.126-0.305,1.126-0.876c0-0.416-0.268-0.673-0.84-0.83l-0.71-0.195c-0.638-0.175-1.033-0.424-1.264-0.812
	c-0.176-0.286-0.269-0.619-0.269-0.978c0-1.172,0.941-1.984,2.298-1.984c0.784,0,1.577,0.24,2.141,0.646l-0.609,0.923
	c-0.581-0.351-1.015-0.488-1.494-0.488c-0.527,0-0.896,0.303-0.896,0.737c0,0.333,0.175,0.498,0.711,0.646l0.775,0.212
	c1.051,0.286,1.623,0.959,1.623,1.909C320.493,28.566,319.441,29.424,317.847,29.424"/>
<path fill="#FFFFFF" d="M324.451,29.415c-0.156-0.11-0.285-0.267-0.368-0.461c-0.306,0.295-0.748,0.453-1.247,0.453
	c-0.664,0-1.236-0.314-1.393-0.766c-0.073-0.211-0.101-0.461-0.101-0.94v-3.027l1.218-0.231v3.036c0,0.424,0.035,0.646,0.102,0.775
	c0.063,0.129,0.248,0.222,0.433,0.222c0.304,0,0.674-0.222,0.766-0.453v-3.321l1.182-0.25v3.607c0,0.314,0.101,0.637,0.286,0.858
	L324.451,29.415z"/>
<path fill="#FFFFFF" d="M327.828,29.434c-0.581,0-1.218-0.184-1.908-0.544l0.44-0.904c0.38,0.231,1.034,0.536,1.568,0.536
	c0.353,0,0.628-0.231,0.628-0.536c0-0.322-0.23-0.489-0.729-0.581l-0.554-0.101c-0.313-0.057-0.701-0.277-0.868-0.48
	c-0.164-0.204-0.267-0.545-0.267-0.849c0-0.923,0.729-1.542,1.827-1.542c0.757,0,1.253,0.231,1.688,0.444l-0.406,0.83
	c-0.471-0.24-0.812-0.342-1.162-0.342c-0.36,0-0.602,0.186-0.602,0.462c0,0.239,0.158,0.369,0.591,0.48l0.572,0.148
	c0.581,0.147,0.776,0.322,0.942,0.535c0.174,0.221,0.258,0.489,0.258,0.803C329.849,28.77,329.035,29.434,327.828,29.434"/>
<path fill="#FFFFFF" d="M332.238,29.434c-0.582,0-1.219-0.184-1.91-0.544l0.443-0.904c0.378,0.231,1.034,0.536,1.567,0.536
	c0.352,0,0.628-0.231,0.628-0.536c0-0.322-0.23-0.489-0.729-0.581l-0.554-0.101c-0.314-0.057-0.702-0.277-0.866-0.48
	c-0.168-0.204-0.269-0.545-0.269-0.849c0-0.923,0.729-1.542,1.827-1.542c0.756,0,1.254,0.231,1.688,0.444l-0.405,0.83
	c-0.471-0.24-0.813-0.342-1.162-0.342c-0.361,0-0.602,0.186-0.602,0.462c0,0.239,0.158,0.369,0.593,0.48l0.57,0.148
	c0.581,0.147,0.774,0.322,0.941,0.535c0.176,0.221,0.257,0.489,0.257,0.803C334.257,28.77,333.446,29.434,332.238,29.434"/>
<path fill="#FFFFFF" d="M336.196,27.312v0.037c0,0.73,0.358,1.145,0.996,1.145c0.425,0,0.821-0.157,1.199-0.471l0.479,0.738
	c-0.544,0.443-1.115,0.655-1.78,0.655c-1.356,0-2.232-0.959-2.232-2.445c0-0.849,0.175-1.412,0.59-1.872
	c0.387-0.434,0.858-0.637,1.485-0.637c0.544,0,1.062,0.184,1.366,0.498c0.433,0.442,0.626,1.079,0.626,2.066v0.286H336.196z
	 M337.644,26.352c0-0.35-0.036-0.536-0.147-0.71c-0.119-0.184-0.295-0.276-0.544-0.276c-0.47,0-0.737,0.369-0.737,1.023v0.02h1.429
	V26.352z"/>
<path fill="#FFFFFF" d="M342.367,29.286l-0.498-0.868c-0.082-0.147-0.331-0.637-0.369-0.702c-0.037,0.111-0.221,0.509-0.471,0.915
	l-0.396,0.655h-1.587l1.745-2.519l-1.312-1.983l1.282-0.359c0.352,0.581,0.462,0.783,0.638,1.153
	c0.046,0.092,0.109,0.231,0.147,0.314c0.027-0.074,0.167-0.406,0.415-0.923c0.073-0.156,0.184-0.351,0.221-0.406h1.458l-1.401,2.177
	l1.697,2.547H342.367z"/>
<path fill="#FFFFFF" d="M299.591,37.728c-0.606,0-1.207-0.255-1.642-0.748c-0.477-0.542-0.674-1.306-0.674-2.143
	c0-1.676,1.003-2.908,2.365-2.908c0.542,0,1.036,0.164,1.421,0.46l-0.362,0.435c-0.336-0.245-0.657-0.353-1.066-0.353
	c-0.648,0-1.117,0.337-1.389,0.969c-0.164,0.377-0.237,0.829-0.237,1.495c0,0.542,0.048,0.862,0.18,1.191
	c0.288,0.706,0.871,1.05,1.512,1.05c0.419,0,0.738-0.107,1.101-0.362l0.361,0.453C300.707,37.563,300.149,37.728,299.591,37.728"/>
<path fill="#FFFFFF" d="M303.048,37.745c-1.124,0-1.766-0.831-1.766-2.178c0-1.33,0.667-2.143,1.74-2.143
	c0.683,0,1.126,0.312,1.405,0.715c0.255,0.369,0.378,0.854,0.378,1.519C304.806,37.022,304.074,37.745,303.048,37.745
	 M303.886,34.476c-0.172-0.361-0.533-0.525-0.871-0.525c-0.359,0-0.697,0.172-0.837,0.444c-0.13,0.253-0.198,0.582-0.198,1.068
	c0,0.574,0.1,1.083,0.256,1.338c0.147,0.245,0.477,0.41,0.83,0.41c0.426,0,0.746-0.222,0.886-0.616
	c0.091-0.255,0.123-0.485,0.123-0.887C304.074,35.133,304.018,34.747,303.886,34.476"/>
<path fill="#FFFFFF" d="M308.509,37.811c-0.271-0.222-0.386-0.386-0.443-0.658c-0.312,0.418-0.74,0.624-1.297,0.624
	c-0.518,0-0.902-0.221-1.076-0.583c-0.073-0.156-0.105-0.369-0.105-0.607v-3.006l0.631-0.123v2.94c0,0.386,0.057,0.559,0.247,0.689
	c0.131,0.091,0.319,0.14,0.5,0.14c0.402,0,0.821-0.296,1.045-0.739v-2.899l0.631-0.106v2.981c0,0.517,0.075,0.723,0.278,0.911
	L308.509,37.811z"/>
<path fill="#FFFFFF" d="M312.106,37.637V34.87c0-0.435-0.032-0.542-0.149-0.681c-0.089-0.107-0.261-0.173-0.449-0.173
	c-0.33,0-0.839,0.263-1.134,0.576v3.045h-0.627v-3.153c0-0.583-0.154-0.863-0.154-0.863l0.623-0.171c0,0,0.15,0.303,0.15,0.64
	c0.427-0.428,0.854-0.632,1.288-0.632c0.444,0,0.838,0.238,1.003,0.599c0.063,0.148,0.097,0.311,0.097,0.477v3.104H312.106z"/>
<path fill="#FFFFFF" d="M315.39,34.032h-0.854v2.636c0,0.453,0.123,0.608,0.526,0.608c0.18,0,0.288-0.025,0.402-0.082l0.091,0.411
	c-0.205,0.106-0.437,0.163-0.723,0.163c-0.214,0-0.378-0.04-0.535-0.114c-0.287-0.14-0.394-0.402-0.394-0.813v-2.808h-0.533v-0.484
	h0.533c0-0.395,0.064-1.035,0.064-1.035l0.676-0.147c0,0-0.084,0.64-0.084,1.182h1.027L315.39,34.032z"/>
<path fill="#FFFFFF" d="M317.945,37.784c-0.271,0.821-0.609,1.364-1.322,1.537l-0.189-0.436c0.525-0.166,0.723-0.428,0.945-1.257
	l-0.264,0.041c-0.05-0.262-0.271-1.059-0.41-1.47l-0.88-2.562l0.632-0.214l0.839,2.652c0.123,0.385,0.246,1.018,0.246,1.018h0.016
	c0,0,0.156-0.525,0.255-0.862l0.805-2.685h0.731L317.945,37.784z"/>
<path fill="#FFFFFF" d="M323.513,37.728c-0.608,0-1.208-0.255-1.643-0.748c-0.477-0.542-0.674-1.306-0.674-2.143
	c0-1.676,1.002-2.908,2.364-2.908c0.543,0,1.035,0.164,1.421,0.46l-0.36,0.435c-0.336-0.245-0.657-0.353-1.068-0.353
	c-0.648,0-1.115,0.337-1.388,0.969c-0.164,0.377-0.238,0.829-0.238,1.495c0,0.542,0.051,0.862,0.183,1.191
	c0.286,0.706,0.868,1.05,1.511,1.05c0.417,0,0.738-0.107,1.099-0.362l0.361,0.453C324.629,37.563,324.071,37.728,323.513,37.728"/>
<path fill="#FFFFFF" d="M327.011,37.745c-1.126,0-1.767-0.831-1.767-2.178c0-1.33,0.667-2.143,1.742-2.143
	c0.681,0,1.125,0.312,1.404,0.715c0.253,0.369,0.377,0.854,0.377,1.519C328.768,37.022,328.037,37.745,327.011,37.745
	 M327.848,34.476c-0.173-0.361-0.532-0.525-0.87-0.525c-0.36,0-0.698,0.172-0.837,0.444c-0.133,0.253-0.198,0.582-0.198,1.068
	c0,0.574,0.1,1.083,0.255,1.338c0.147,0.245,0.476,0.41,0.829,0.41c0.428,0,0.748-0.222,0.888-0.616
	c0.092-0.255,0.123-0.485,0.123-0.887C328.037,35.133,327.979,34.747,327.848,34.476"/>
<path fill="#FFFFFF" d="M332.471,37.811c-0.271-0.222-0.386-0.386-0.442-0.658c-0.313,0.418-0.74,0.624-1.299,0.624
	c-0.518,0-0.903-0.221-1.074-0.583c-0.074-0.156-0.107-0.369-0.107-0.607v-3.006l0.633-0.123v2.94c0,0.386,0.057,0.559,0.246,0.689
	c0.132,0.091,0.319,0.14,0.501,0.14c0.402,0,0.82-0.296,1.042-0.739v-2.899l0.634-0.106v2.981c0,0.517,0.073,0.723,0.278,0.911
	L332.471,37.811z"/>
<path fill="#FFFFFF" d="M336.069,37.637V34.87c0-0.435-0.034-0.542-0.149-0.681c-0.09-0.107-0.262-0.173-0.452-0.173
	c-0.327,0-0.836,0.263-1.132,0.576v3.045h-0.625v-3.153c0-0.583-0.156-0.863-0.156-0.863l0.624-0.171c0,0,0.149,0.303,0.149,0.64
	c0.426-0.428,0.853-0.632,1.288-0.632c0.443,0,0.838,0.238,1.002,0.599c0.066,0.148,0.099,0.311,0.099,0.477v3.104H336.069z"/>
<path fill="#FFFFFF" d="M339.237,37.728c-0.583,0-1.019-0.207-1.305-0.616c-0.272-0.394-0.396-0.846-0.396-1.454
	c0-0.895,0.264-1.388,0.617-1.741c0.32-0.321,0.672-0.477,1.108-0.477c0.518,0,0.82,0.197,1.116,0.443l-0.354,0.444
	c-0.286-0.239-0.467-0.329-0.78-0.329c-0.32,0-0.624,0.18-0.771,0.46c-0.156,0.287-0.231,0.739-0.231,1.338
	c0,0.92,0.355,1.42,1.01,1.42c0.331,0,0.642-0.155,0.88-0.443l0.353,0.411C340.109,37.572,339.746,37.728,339.237,37.728"/>
<path fill="#FFFFFF" d="M341.488,32.784c-0.28,0-0.501-0.222-0.501-0.493c0-0.278,0.221-0.509,0.501-0.509
	c0.279,0,0.501,0.222,0.501,0.501C341.989,32.562,341.768,32.784,341.488,32.784 M341.144,37.637v-4.072l0.665-0.107v4.179H341.144z
	"/>
<path fill="#FFFFFF" d="M343.558,37.719c-0.197,0-0.36-0.058-0.485-0.173c-0.131-0.114-0.196-0.287-0.196-0.583v-4.336
	c0-0.534-0.099-0.838-0.099-0.838l0.64-0.123c0,0,0.107,0.345,0.107,0.968v4.18c0,0.321,0.05,0.41,0.23,0.41
	c0.023,0,0.081-0.016,0.081-0.016l0.132,0.42C343.803,37.704,343.729,37.719,343.558,37.719"/>
<path fill="#FFFFFF" d="M7.126,69.075H5.934c0-1.146-0.5-1.719-1.501-1.719c-1.066,0-1.596,0.524-1.596,1.569
	c0,0.741,0.392,1.282,1.177,1.625c0.73,0.279,1.466,0.56,2.208,0.84c0.784,0.45,1.175,1.173,1.175,2.164
	c0,1.021-0.33,1.778-0.987,2.274c-0.532,0.397-1.205,0.596-2.016,0.596c-1.083,0-1.855-0.28-2.315-0.839
	c-0.405-0.497-0.609-1.291-0.609-2.383h1.19c0,0.713,0.086,1.223,0.259,1.53c0.261,0.479,0.779,0.718,1.557,0.718
	c0.477,0,0.876-0.159,1.197-0.475c0.321-0.315,0.481-0.728,0.481-1.231c0-0.741-0.393-1.29-1.178-1.65
	c-0.73-0.28-1.466-0.564-2.206-0.854C1.983,70.78,1.591,70.05,1.591,69.05c0-0.659,0.166-1.215,0.5-1.667
	c0.477-0.667,1.255-1.001,2.33-1.001C6.195,66.382,7.099,67.28,7.126,69.075"/>
<path fill="#FFFFFF" d="M14.759,68.981v7.253h-1.083v-0.853h-0.029c-0.144,0.325-0.38,0.581-0.709,0.765
	c-0.33,0.187-0.679,0.278-1.049,0.278c-0.831,0-1.385-0.274-1.665-0.825c-0.163-0.316-0.243-0.807-0.243-1.477v-5.142h1.136v5.007
	c0,0.974,0.356,1.463,1.069,1.463c0.362,0,0.677-0.113,0.947-0.34c0.326-0.271,0.489-0.645,0.489-1.123v-5.007H14.759z"/>
<path fill="#FFFFFF" d="M17.669,78.617v-9.636h1.082v0.893h0.054c0.081-0.29,0.266-0.542,0.558-0.758
	c0.292-0.216,0.626-0.325,1.001-0.325c1.567,0,2.352,1.228,2.352,3.682c0,1.029-0.159,1.895-0.477,2.599
	c-0.418,0.902-1.053,1.354-1.908,1.354c-0.327,0-0.632-0.094-0.913-0.277c-0.282-0.186-0.487-0.432-0.614-0.738v3.208H17.669z
	 M18.737,72.608c0,1.896,0.487,2.843,1.462,2.843c0.498,0,0.849-0.264,1.056-0.786c0.18-0.459,0.271-1.19,0.271-2.192
	c0-1.804-0.442-2.707-1.327-2.707c-0.577,0-0.979,0.266-1.204,0.799C18.823,70.988,18.737,71.67,18.737,72.608"/>
<path fill="#FFFFFF" d="M25.357,78.617v-9.636h1.083v0.893h0.053c0.08-0.29,0.266-0.542,0.559-0.758
	c0.291-0.216,0.625-0.325,1-0.325c1.568,0,2.353,1.228,2.353,3.682c0,1.029-0.16,1.895-0.477,2.599
	c-0.419,0.902-1.053,1.354-1.908,1.354c-0.328,0-0.631-0.094-0.913-0.277c-0.282-0.186-0.487-0.432-0.614-0.738v3.208H25.357z
	 M26.425,72.608c0,1.896,0.488,2.843,1.462,2.843c0.498,0,0.848-0.264,1.055-0.786c0.181-0.459,0.271-1.19,0.271-2.192
	c0-1.804-0.442-2.707-1.327-2.707c-0.578,0-0.979,0.266-1.204,0.799C26.511,70.988,26.425,71.67,26.425,72.608"/>
<path fill="#FFFFFF" d="M32.692,72.608c0-2.545,0.869-3.817,2.611-3.817c1.743,0,2.612,1.272,2.612,3.817s-0.869,3.817-2.612,3.817
	C33.562,76.426,32.692,75.153,32.692,72.608 M35.276,75.531c0.966,0,1.449-0.975,1.449-2.923c0-0.911-0.091-1.599-0.271-2.058
	c-0.225-0.578-0.618-0.866-1.177-0.866c-0.93,0-1.393,0.976-1.393,2.924S34.346,75.531,35.276,75.531"/>
<path fill="#FFFFFF" d="M40.474,76.235v-7.253h1.137v1.081c0.4-0.849,0.931-1.272,1.589-1.272c0.229,0,0.399,0.027,0.507,0.081
	v1.111c-0.288-0.036-0.492-0.056-0.608-0.056c-0.343,0-0.665,0.136-0.961,0.406c-0.352,0.335-0.528,0.771-0.528,1.312v4.589H40.474z
	"/>
<path fill="#FFFFFF" d="M46.239,68.981V66.87h1.137v2.111h1.259v0.893h-1.259v4.667c0,0.299,0.052,0.509,0.154,0.632
	c0.106,0.121,0.303,0.183,0.59,0.183c0.091,0,0.258-0.018,0.5-0.054v0.946c-0.297,0.055-0.604,0.081-0.92,0.081
	c-0.56,0-0.952-0.122-1.177-0.366c-0.19-0.208-0.284-0.564-0.284-1.07v-5.019h-1.055v-0.893H46.239z"/>
<path fill="#FFFFFF" d="M50.895,66.571h1.137v1.3h-1.137V66.571z M50.895,68.981h1.137v7.253h-1.137V68.981z"/>
<path fill="#FFFFFF" d="M55.009,76.235v-7.253h1.083v0.853h0.029c0.142-0.325,0.386-0.583,0.729-0.773
	c0.315-0.181,0.658-0.271,1.029-0.271c0.829,0,1.385,0.275,1.664,0.826c0.163,0.316,0.244,0.808,0.244,1.476v5.143H58.65v-5.008
	c0-0.976-0.359-1.462-1.071-1.462c-0.36,0-0.676,0.112-0.947,0.339c-0.326,0.271-0.487,0.645-0.487,1.123v5.008H55.009z"/>
<path fill="#FFFFFF" d="M67.486,68.982v6.793c0,1.966-0.82,2.95-2.461,2.95c-1.462,0-2.256-0.605-2.383-1.813h1.138
	c0.053,0.613,0.441,0.92,1.163,0.92c0.632,0,1.052-0.208,1.258-0.623c0.101-0.206,0.149-0.541,0.149-1.002v-0.946h-0.027
	c-0.117,0.298-0.327,0.533-0.628,0.71c-0.302,0.176-0.638,0.265-1.008,0.265c-0.911,0-1.547-0.482-1.909-1.448
	c-0.226-0.585-0.337-1.313-0.337-2.179c0-2.545,0.79-3.817,2.368-3.817c0.378,0,0.722,0.113,1.029,0.34
	c0.278,0.215,0.46,0.473,0.541,0.771h0.028v-0.919H67.486z M64.956,69.766c-0.497,0-0.849,0.258-1.054,0.772
	c-0.182,0.441-0.272,1.132-0.272,2.07c0,1.767,0.437,2.652,1.313,2.652c0.569,0,0.971-0.258,1.206-0.771
	c0.179-0.406,0.271-1.033,0.271-1.881C66.418,70.713,65.93,69.766,64.956,69.766"/>
<polygon fill="#FFFFFF" points="75.092,76.235 75.092,66.572 80.086,66.572 80.086,67.627 76.284,67.627 76.284,70.66 79.869,70.66 
	79.869,71.714 76.284,71.714 76.284,75.18 80.249,75.18 80.249,76.235 "/>
<path fill="#FFFFFF" d="M83.701,71.174h-1.137c0-0.831,0.191-1.435,0.575-1.813c0.383-0.378,1.004-0.568,1.861-0.568
	c0.957,0,1.602,0.252,1.936,0.76c0.18,0.28,0.271,0.723,0.271,1.327v4.056c0,0.39,0.118,0.583,0.351,0.583
	c0.118,0,0.208-0.026,0.271-0.08v0.822c-0.271,0.047-0.491,0.07-0.663,0.07c-0.307,0-0.524-0.041-0.65-0.124
	c-0.225-0.128-0.352-0.401-0.378-0.823h-0.026c-0.182,0.314-0.433,0.568-0.753,0.759c-0.319,0.188-0.649,0.284-0.994,0.284
	c-1.318,0-1.976-0.704-1.976-2.112c0-1.064,0.456-1.732,1.365-2.003l1.53-0.461c0.378-0.116,0.619-0.257,0.717-0.42
	c0.073-0.107,0.11-0.334,0.11-0.676c0-0.713-0.389-1.069-1.164-1.069c-0.832,0-1.246,0.474-1.246,1.422V71.174z M86.069,74.144
	v-1.861c-0.162,0.172-0.474,0.328-0.932,0.473c-0.543,0.171-0.878,0.298-1.004,0.376c-0.369,0.226-0.554,0.607-0.554,1.148
	c0,0.824,0.342,1.238,1.028,1.238c0.379,0,0.718-0.138,1.016-0.411C85.92,74.833,86.069,74.511,86.069,74.144"/>
<path fill="#FFFFFF" d="M94.418,71.106h-1.137c0-0.488-0.08-0.847-0.237-1.077c-0.157-0.23-0.435-0.345-0.831-0.345
	c-0.787,0-1.178,0.37-1.178,1.109c0,0.37,0.185,0.659,0.555,0.867c0.117,0.062,0.528,0.212,1.231,0.446
	c0.587,0.198,0.994,0.396,1.218,0.595c0.371,0.325,0.556,0.808,0.556,1.449c0,0.74-0.214,1.303-0.642,1.692
	c-0.429,0.387-0.995,0.582-1.699,0.582c-1.662,0-2.49-0.857-2.49-2.572H90.9c0,1.118,0.451,1.678,1.354,1.678
	c0.279,0,0.528-0.072,0.744-0.217c0.308-0.207,0.461-0.536,0.461-0.987c0-0.424-0.186-0.753-0.555-0.987
	c-0.163-0.109-0.568-0.271-1.218-0.489c-0.605-0.207-1.011-0.4-1.218-0.581c-0.378-0.316-0.568-0.808-0.568-1.476
	c0-0.649,0.231-1.153,0.689-1.516c0.415-0.325,0.958-0.486,1.625-0.486c0.919,0,1.55,0.279,1.894,0.837
	C94.307,69.964,94.41,70.456,94.418,71.106"/>
<path fill="#FFFFFF" d="M97.438,68.981V66.87h1.137v2.111h1.259v0.893h-1.259v4.667c0,0.299,0.052,0.509,0.155,0.632
	c0.104,0.121,0.301,0.183,0.587,0.183c0.091,0,0.259-0.018,0.502-0.054v0.946c-0.297,0.055-0.605,0.081-0.92,0.081
	c-0.56,0-0.951-0.122-1.177-0.366c-0.19-0.208-0.284-0.564-0.284-1.07v-5.019h-1.056v-0.893H97.438z"/>
<path fill="#FFFFFF" d="M112.027,69.075h-1.191c0-1.146-0.5-1.719-1.502-1.719c-1.066,0-1.596,0.524-1.596,1.569
	c0,0.741,0.392,1.282,1.176,1.625c0.73,0.279,1.466,0.56,2.207,0.84c0.785,0.45,1.176,1.173,1.176,2.164
	c0,1.021-0.33,1.778-0.987,2.274c-0.532,0.397-1.205,0.596-2.015,0.596c-1.084,0-1.855-0.28-2.315-0.839
	c-0.406-0.497-0.61-1.291-0.61-2.383h1.19c0,0.713,0.087,1.223,0.259,1.53c0.261,0.479,0.78,0.718,1.557,0.718
	c0.478,0,0.877-0.159,1.197-0.475c0.321-0.315,0.481-0.728,0.481-1.231c0-0.741-0.392-1.29-1.178-1.65
	c-0.73-0.28-1.466-0.564-2.205-0.854c-0.786-0.461-1.178-1.191-1.178-2.191c0-0.659,0.167-1.215,0.5-1.667
	c0.478-0.667,1.255-1.001,2.33-1.001C111.097,66.382,112,67.28,112.027,69.075"/>
<path fill="#FFFFFF" d="M119.661,68.981v7.253h-1.083v-0.853h-0.029c-0.145,0.325-0.381,0.581-0.71,0.765
	c-0.33,0.187-0.678,0.278-1.048,0.278c-0.831,0-1.385-0.274-1.666-0.825c-0.163-0.316-0.242-0.807-0.242-1.477v-5.142h1.136v5.007
	c0,0.974,0.355,1.463,1.068,1.463c0.363,0,0.678-0.113,0.948-0.34c0.325-0.271,0.489-0.645,0.489-1.123v-5.007H119.661z"/>
<path fill="#FFFFFF" d="M126.819,71.106h-1.138c0-0.488-0.079-0.847-0.235-1.077c-0.158-0.23-0.436-0.345-0.832-0.345
	c-0.786,0-1.179,0.37-1.179,1.109c0,0.37,0.187,0.659,0.556,0.867c0.117,0.062,0.526,0.212,1.23,0.446
	c0.588,0.198,0.994,0.396,1.219,0.595c0.369,0.325,0.556,0.808,0.556,1.449c0,0.74-0.214,1.303-0.643,1.692
	c-0.429,0.387-0.995,0.582-1.699,0.582c-1.66,0-2.49-0.857-2.49-2.572h1.137c0,1.118,0.45,1.678,1.353,1.678
	c0.28,0,0.529-0.072,0.744-0.217c0.308-0.207,0.461-0.536,0.461-0.987c0-0.424-0.185-0.753-0.555-0.987
	c-0.162-0.109-0.568-0.271-1.218-0.489c-0.604-0.207-1.011-0.4-1.218-0.581c-0.378-0.316-0.568-0.808-0.568-1.476
	c0-0.649,0.231-1.153,0.691-1.516c0.414-0.325,0.955-0.486,1.625-0.486c0.919,0,1.55,0.279,1.893,0.837
	C126.707,69.964,126.809,70.456,126.819,71.106"/>
<path fill="#FFFFFF" d="M133.749,71.106h-1.138c0-0.488-0.079-0.847-0.237-1.077c-0.157-0.23-0.434-0.345-0.831-0.345
	c-0.787,0-1.178,0.37-1.178,1.109c0,0.37,0.185,0.659,0.557,0.867c0.115,0.062,0.526,0.212,1.23,0.446
	c0.586,0.198,0.994,0.396,1.218,0.595c0.37,0.325,0.556,0.808,0.556,1.449c0,0.74-0.214,1.303-0.643,1.692
	c-0.429,0.387-0.995,0.582-1.698,0.582c-1.663,0-2.491-0.857-2.491-2.572h1.137c0,1.118,0.451,1.678,1.354,1.678
	c0.279,0,0.527-0.072,0.743-0.217c0.308-0.207,0.461-0.536,0.461-0.987c0-0.424-0.186-0.753-0.555-0.987
	c-0.162-0.109-0.568-0.271-1.217-0.489c-0.606-0.207-1.012-0.4-1.219-0.581c-0.378-0.316-0.568-0.808-0.568-1.476
	c0-0.649,0.231-1.153,0.689-1.516c0.415-0.325,0.958-0.486,1.625-0.486c0.919,0,1.55,0.279,1.894,0.837
	C133.636,69.964,133.739,70.456,133.749,71.106"/>
<path fill="#FFFFFF" d="M141.192,72.743h-3.817c0,0.83,0.059,1.436,0.176,1.813c0.198,0.651,0.605,0.975,1.219,0.975
	c0.468,0,0.812-0.212,1.029-0.636c0.133-0.289,0.202-0.637,0.202-1.043h1.138c0,0.568-0.158,1.091-0.474,1.57
	c-0.442,0.667-1.096,1.002-1.962,1.002c-0.876,0-1.517-0.312-1.922-0.933c-0.396-0.597-0.597-1.526-0.597-2.79
	c0-2.606,0.863-3.911,2.587-3.911c0.982,0,1.664,0.387,2.042,1.165c0.252,0.522,0.379,1.298,0.379,2.327V72.743z M137.416,71.85
	h2.585v-0.392c0-1.181-0.419-1.773-1.259-1.773c-0.459,0-0.807,0.212-1.042,0.636c-0.19,0.353-0.285,0.772-0.285,1.258V71.85z"/>
<polygon fill="#FFFFFF" points="145.184,72.459 143.332,68.981 144.576,68.981 145.888,71.565 147.214,68.981 148.46,68.981 
	146.565,72.459 148.526,76.234 147.282,76.234 145.835,73.366 144.439,76.234 143.195,76.234 "/>
<path fill="#FFFFFF" d="M12.822,49.39H9.258c0-1.32-0.157-2.265-0.471-2.834c-0.312-0.568-0.864-0.854-1.658-0.854
	c-0.873,0-1.467,0.512-1.781,1.534c-0.295,0.94-0.445,2.697-0.445,5.271c0,2.539,0.19,4.254,0.57,5.145
	c0.312,0.776,0.88,1.164,1.706,1.164c0.726,0,1.262-0.272,1.607-0.817c0.413-0.677,0.62-1.896,0.62-3.662h3.563
	c0,2.211-0.354,3.869-1.064,4.974c-0.889,1.418-2.409,2.128-4.553,2.128c-2.457,0-4.123-0.858-4.998-2.573
	C1.678,57.562,1.34,55.36,1.34,52.258c0-3.1,0.337-5.302,1.015-6.604c0.875-1.716,2.541-2.574,4.998-2.574
	c2.245,0,3.794,0.727,4.652,2.178C12.549,46.214,12.822,47.59,12.822,49.39"/>
<path fill="#FFFFFF" d="M14.777,52.258c0-3.1,0.337-5.302,1.013-6.604c0.875-1.716,2.54-2.574,4.999-2.574
	c2.457,0,4.132,0.858,5.023,2.574c0.66,1.303,0.989,3.505,0.989,6.604c0,3.103-0.33,5.305-0.989,6.607
	c-0.891,1.716-2.566,2.573-5.023,2.573c-2.458,0-4.124-0.857-4.999-2.573C15.114,57.562,14.777,55.36,14.777,52.258 M18.338,52.258
	c0,2.509,0.149,4.192,0.446,5.05c0.33,1.005,0.999,1.509,2.004,1.509c1.006,0,1.673-0.504,2.004-1.509
	c0.297-0.857,0.445-2.541,0.445-5.05c0-2.488-0.148-4.172-0.445-5.046c-0.331-1.007-0.998-1.51-2.004-1.51
	c-1.005,0-1.675,0.503-2.004,1.51C18.487,48.086,18.338,49.77,18.338,52.258"/>
<path fill="#FFFFFF" d="M28.358,55.574h3.563v0.52c0,0.908,0.158,1.568,0.472,1.979c0.362,0.495,0.989,0.743,1.879,0.743
	c0.594,0,1.097-0.19,1.51-0.57c0.411-0.378,0.618-0.915,0.618-1.607c0-0.774-0.223-1.369-0.668-1.782
	c-0.446-0.412-1.278-0.824-2.498-1.236c-1.651-0.561-2.813-1.22-3.489-1.979c-0.759-0.824-1.139-1.946-1.139-3.365
	c0-1.683,0.495-2.977,1.484-3.885c0.941-0.874,2.269-1.312,3.985-1.312c1.681,0,2.994,0.373,3.934,1.114
	c1.023,0.808,1.532,2.021,1.532,3.638v0.494h-3.414c0-1.748-0.642-2.623-1.93-2.623c-1.352,0-2.029,0.687-2.029,2.053
	c0,0.578,0.115,1.031,0.347,1.361c0.263,0.38,0.757,0.726,1.484,1.04l2.748,1.188c1.285,0.561,2.185,1.212,2.696,1.954
	c0.445,0.677,0.667,1.585,0.667,2.723c0,3.611-2.044,5.418-6.135,5.418c-3.744,0-5.617-1.716-5.617-5.146V55.574z"/>
<polygon fill="#FFFFFF" points="41.102,43.426 52.383,43.426 52.383,46.346 48.524,46.346 48.524,61.093 44.961,61.093 
	44.961,46.346 41.102,46.346 "/>
<path fill="#FFFFFF" d="M51.469,61.093l4.677-17.667h4.403l4.677,17.667h-3.711l-0.816-3.738h-4.7l-0.817,3.738H51.469z
	 M58.323,46.493l-1.708,7.943h3.464l-1.708-7.943H58.323z"/>
<rect x="66.785" y="43.426" fill="#FFFFFF" width="3.562" height="17.667"/>
<polygon fill="#FFFFFF" points="73.143,43.426 77.275,43.426 81.606,55.524 81.606,43.426 84.871,43.426 84.871,61.093 
	80.79,61.093 76.408,48.721 76.408,61.093 73.143,61.093 "/>
<path fill="#FFFFFF" d="M104.69,49.39h-3.564c0-1.32-0.156-2.265-0.471-2.834c-0.312-0.568-0.865-0.854-1.657-0.854
	c-0.873,0-1.468,0.512-1.782,1.534c-0.295,0.94-0.445,2.697-0.445,5.271c0,2.539,0.189,4.254,0.57,5.145
	c0.312,0.776,0.882,1.164,1.706,1.164c0.727,0,1.263-0.272,1.608-0.817c0.414-0.677,0.62-1.896,0.62-3.662h3.562
	c0,2.211-0.355,3.869-1.063,4.974c-0.89,1.418-2.41,2.128-4.553,2.128c-2.458,0-4.123-0.858-4.998-2.573
	c-0.678-1.304-1.016-3.505-1.016-6.607c0-3.1,0.337-5.302,1.016-6.604c0.875-1.716,2.54-2.574,4.998-2.574
	c2.243,0,3.794,0.727,4.652,2.178C104.417,46.214,104.69,47.59,104.69,49.39"/>
<polygon fill="#FFFFFF" points="107.015,61.093 107.015,43.426 110.578,43.426 110.578,50.181 114.735,50.181 114.735,43.426 
	118.297,43.426 118.297,61.093 114.735,61.093 114.735,53.248 110.578,53.248 110.578,61.093 "/>
<path fill="#FFFFFF" d="M130.94,58.32v2.772h-10.787c0-1.519,0.322-2.888,0.964-4.108c0.596-1.12,1.56-2.308,2.896-3.562
	l1.435-1.335c0.759-0.71,1.254-1.325,1.486-1.844c0.23-0.52,0.346-1.243,0.346-2.166c0-1.45-0.578-2.178-1.732-2.178
	c-0.809,0-1.361,0.338-1.657,1.015c-0.199,0.48-0.307,1.279-0.322,2.4h-3.415v-0.668c0-3.381,1.814-5.073,5.444-5.073
	c3.495,0,5.244,1.594,5.244,4.775c0,1.14-0.205,2.121-0.618,2.944c-0.412,0.826-1.112,1.7-2.102,2.625l-1.981,1.83
	c-1.006,0.924-1.608,1.781-1.805,2.572H130.94z"/>
<polygon fill="#FFFFFF" points="133.018,61.093 133.018,43.426 138.313,43.426 140.837,55.896 140.887,55.896 143.436,43.426 
	148.707,43.426 148.707,61.093 145.441,61.093 145.441,46.989 142.264,61.093 139.462,61.093 136.285,46.989 136.285,61.093 "/>
<path fill="#FFFFFF" d="M185.253,51.005c0,7.26-5.885,13.145-13.145,13.145c-7.259,0-13.146-5.885-13.146-13.145
	s5.887-13.146,13.146-13.146C179.368,37.859,185.253,43.745,185.253,51.005"/>
<path fill="#FFFFFF" d="M216.481,51.005c0,7.26-5.885,13.145-13.145,13.145c-7.261,0-13.146-5.885-13.146-13.145
	s5.886-13.146,13.146-13.146C210.597,37.859,216.481,43.745,216.481,51.005"/>
<path fill="#FFFFFF" d="M247.71,51.005c0,7.26-5.886,13.145-13.146,13.145c-7.261,0-13.145-5.885-13.145-13.145
	s5.884-13.146,13.145-13.146C241.824,37.859,247.71,43.745,247.71,51.005"/>
<g>
	<path fill="#FFFFFF" d="M11.151,13.786c-0.084,0.156-0.27,0.252-0.557,0.288c-0.024,0-0.282,0.012-0.773,0.036
		c0.083,0.54,0.396,1.21,0.935,2.014c0.312,0.228,0.468,0.527,0.468,0.898c0,0.587-0.36,0.881-1.079,0.881
		c-0.683,0-1.151-0.174-1.402-0.521c-0.084-0.12-0.138-0.282-0.162-0.485c0-0.132-0.006-0.27-0.018-0.414
		c-0.108-0.108-0.432-0.803-0.971-2.085c-0.983,0.144-2.193,0.348-3.631,0.611c-0.144,0.348-0.3,0.851-0.468,1.51
		c0.024,0.12,0.036,0.233,0.036,0.341c0,0.324-0.108,0.572-0.324,0.746c-0.216,0.173-0.474,0.261-0.773,0.261
		c-0.335,0-0.647-0.126-0.935-0.377c-0.288-0.252-0.432-0.545-0.432-0.881c0-0.3,0.138-0.569,0.414-0.809
		c0.899-4.566,1.989-8.341,3.272-11.326C4.728,4.33,4.716,4.186,4.716,4.042c0-0.6,0.204-0.995,0.611-1.187
		C5.495,2.784,5.71,2.748,5.974,2.748c0.503,0,0.923,0.078,1.258,0.233C7.664,3.197,7.88,3.521,7.88,3.952
		c0,0.396-0.108,0.75-0.324,1.061C7.784,7.051,8.275,9.399,9.03,12.06c0.072-0.012,0.317-0.072,0.737-0.18
		c0.252-0.072,0.443-0.108,0.576-0.108c0.155,0,0.281,0.036,0.377,0.108c0.419,0.323,0.629,0.719,0.629,1.187
		C11.349,13.318,11.283,13.558,11.151,13.786z M6.837,12.419c-0.204-0.755-0.527-2.205-0.971-4.35
		c-0.851,1.857-1.354,3.451-1.51,4.782L6.837,12.419z"/>
	<path fill="#FFFFFF" d="M23.628,12.492c0,1.27-0.27,2.427-0.809,3.469c-0.6,1.127-1.336,1.69-2.211,1.69
		c-0.491,0-0.995-0.389-1.51-1.168v2.301c0,0.192,0.078,0.438,0.233,0.737c0.156,0.299,0.234,0.527,0.234,0.683
		c0,0.12-0.03,0.24-0.09,0.359c-0.252,0.54-0.743,0.809-1.474,0.809c-0.6,0-0.971-0.216-1.115-0.647
		c-0.048-0.144-0.072-0.282-0.072-0.414s0.039-0.309,0.117-0.53c0.078-0.222,0.117-0.411,0.117-0.566V8.986
		c0-0.132-0.048-0.291-0.144-0.476c-0.096-0.186-0.144-0.339-0.144-0.458c0-0.096,0.023-0.198,0.072-0.306
		c0.144-0.335,0.587-0.503,1.33-0.503c0.467,0,0.779,0.096,0.935,0.288c0.06,0.072,0.09,0.162,0.09,0.27
		c0,0.084-0.03,0.216-0.09,0.396c-0.06,0.18-0.096,0.318-0.108,0.414c0.551-0.791,1.198-1.187,1.941-1.187
		c0.995,0,1.72,0.563,2.175,1.69C23.454,9.987,23.628,11.113,23.628,12.492z M21.363,12.492c0-1.139-0.024-1.864-0.072-2.175
		c-0.12-0.779-0.419-1.168-0.898-1.168c-0.276,0-0.524,0.375-0.746,1.124c-0.222,0.749-0.333,1.489-0.333,2.22
		c0,0.551,0.12,1.198,0.359,1.941c0.24,0.791,0.479,1.187,0.719,1.187c0.288,0,0.527-0.366,0.719-1.097
		C21.279,13.888,21.363,13.21,21.363,12.492z"/>
	<path fill="#FFFFFF" d="M32.759,16.698c-0.18,0.587-0.623,0.881-1.33,0.881c-0.24,0-0.432-0.042-0.575-0.126
		c-0.192-0.132-0.324-0.396-0.396-0.791c-0.144-0.683-0.288-1.216-0.432-1.6c-0.036,0.659-0.396,1.328-1.079,2.004
		c-0.683,0.677-1.373,1.016-2.067,1.016c-0.875,0-1.48-0.582-1.815-1.744c-0.12-0.431-0.18-0.838-0.18-1.222
		c0-1.115,0.569-2.067,1.708-2.858c0.935-0.551,1.875-1.097,2.822-1.636c0.048-0.204,0.072-0.402,0.072-0.593
		c0-0.372-0.102-0.59-0.306-0.656c-0.204-0.066-0.377-0.099-0.521-0.099c-0.251,0-0.458,0.081-0.62,0.243
		c-0.162,0.162-0.314,0.315-0.458,0.458c-0.144,0.096-0.33,0.318-0.557,0.665c-0.18,0.276-0.377,0.426-0.593,0.45
		c-0.312,0.036-0.593-0.072-0.845-0.324c-0.251-0.251-0.377-0.545-0.377-0.881c0-0.191,0.048-0.365,0.144-0.521
		c0.275-0.455,0.689-0.851,1.24-1.187c0.839-0.503,1.888-0.755,3.146-0.755c0.803,0,1.354,0.384,1.654,1.15
		c0.192,0.516,0.335,1.48,0.432,2.895c0.108,1.714,0.24,2.966,0.396,3.757c0.024,0.156,0.126,0.354,0.306,0.593
		s0.27,0.449,0.27,0.629C32.795,16.53,32.783,16.614,32.759,16.698z M29.631,12.276c-0.359,0.192-0.716,0.39-1.069,0.593
		c-0.354,0.204-0.681,0.474-0.98,0.809c-0.432,0.492-0.647,0.911-0.647,1.259c0,0.288,0.108,0.587,0.323,0.898
		c0.12,0.168,0.252,0.252,0.396,0.252c0.312,0,0.65-0.348,1.016-1.042C29.035,14.349,29.355,13.426,29.631,12.276z"/>
	<path fill="#FFFFFF" d="M41.083,8.285c-0.048,0.252-0.276,0.426-0.683,0.521c-0.479,0.12-0.785,0.258-0.917,0.414l-2.931,3.379
		v2.733c0,0.264,0.075,0.53,0.225,0.8c0.149,0.27,0.225,0.477,0.225,0.62c0,0.144-0.042,0.306-0.126,0.485
		c-0.204,0.456-0.617,0.683-1.24,0.683c-0.432,0-0.773-0.138-1.025-0.414c-0.168-0.18-0.251-0.407-0.251-0.683
		c0-0.096,0.012-0.251,0.036-0.467s0.036-0.389,0.036-0.521V9.112c0-0.108-0.048-0.24-0.144-0.396
		c-0.096-0.156-0.144-0.281-0.144-0.377c0-0.072,0.024-0.156,0.072-0.252c0.156-0.288,0.641-0.431,1.456-0.431
		c0.635,0,0.995,0.15,1.079,0.449c0.036,0.12,0.054,0.222,0.054,0.306c0,0.132-0.048,0.234-0.144,0.306
		c-0.096,0.072-0.144,0.144-0.144,0.216l0.036,0.647l1.546-1.636c0.18-0.204,0.368-0.407,0.566-0.611
		c0.198-0.204,0.429-0.317,0.692-0.341c0.407-0.036,0.8,0.054,1.177,0.27c0.378,0.216,0.566,0.498,0.566,0.845
		C41.101,8.165,41.094,8.225,41.083,8.285z"/>
	<path fill="#FFFFFF" d="M47.285,9.292c-0.096,0-0.246-0.039-0.449-0.117c-0.204-0.078-0.36-0.117-0.468-0.117
		c-0.084,0-0.168,0.018-0.251,0.054l-0.665,0.341v6.148c0,0.228,0.123,0.521,0.368,0.881s0.345,0.647,0.297,0.863
		c-0.06,0.264-0.237,0.473-0.53,0.629c-0.294,0.155-0.608,0.233-0.944,0.233c-0.635,0-1.073-0.282-1.312-0.845
		c-0.072-0.168-0.114-0.701-0.125-1.6c-0.012-0.599-0.006-1.534,0.018-2.804c0.024-1.438,0.036-2.349,0.036-2.732
		c-0.072,0.024-0.192,0.105-0.359,0.243c-0.168,0.138-0.336,0.207-0.503,0.207c-0.132,0-0.3-0.036-0.503-0.108
		c-0.839-0.288-1.258-0.581-1.258-0.881c0-0.072,0.018-0.15,0.054-0.234c0.084-0.191,0.24-0.299,0.467-0.323
		c0.348-0.048,0.558-0.09,0.629-0.126c0.275-0.108,0.779-0.365,1.51-0.773V6.667c0-0.12-0.033-0.279-0.099-0.477
		s-0.099-0.344-0.099-0.44c0-0.108,0.03-0.209,0.09-0.306c0.312-0.479,0.731-0.719,1.258-0.719c0.611,0,1.042,0.24,1.294,0.719
		c0.096,0.192,0.144,0.348,0.144,0.467c0,0.144-0.072,0.294-0.215,0.45c-0.144,0.156-0.216,0.3-0.216,0.432v0.881
		c0.216-0.096,0.455-0.258,0.719-0.486c0.204-0.167,0.378-0.251,0.521-0.251c0.06,0,0.126,0.012,0.198,0.036
		c0.755,0.204,1.133,0.659,1.133,1.366c0,0.228-0.069,0.443-0.207,0.647C47.677,9.19,47.5,9.292,47.285,9.292z"/>
	<path fill="#FFFFFF" d="M57.441,16.303c-0.024,0.264-0.198,0.488-0.521,0.674c-0.323,0.186-0.683,0.279-1.079,0.279
		c-0.587,0-0.989-0.186-1.204-0.557c0.096-3.691-0.012-5.561-0.324-5.609c-0.3-0.048-1.031,1.606-2.193,4.961
		c0,0.36,0,0.719,0,1.079c-0.012,0.432-0.129,0.737-0.351,0.917s-0.458,0.27-0.71,0.27c-0.431,0-0.893-0.233-1.384-0.701
		c-0.144-0.12-0.222-1.03-0.233-2.732c0.012,1.043,0.018-0.893,0.018-5.807c0-0.108-0.012-0.254-0.036-0.44
		c-0.024-0.186-0.036-0.32-0.036-0.404c0-0.228,0.06-0.425,0.18-0.593c0.144-0.216,0.372-0.324,0.683-0.324
		c0.324,0,0.662,0.099,1.016,0.297c0.353,0.198,0.566,0.386,0.638,0.566c0.047,0.12,0.072,0.24,0.072,0.36s-0.048,0.288-0.144,0.503
		c-0.096,0.215-0.144,0.396-0.144,0.539v2.481c0.755-1.606,1.324-2.667,1.708-3.182c0.683-0.887,1.456-1.3,2.319-1.24
		c0.515,0.036,0.881,0.516,1.097,1.438c0.167,0.695,0.257,1.726,0.27,3.092c0,1.079,0,2.157,0,3.236
		c0.024,0.084,0.108,0.233,0.251,0.449C57.417,15.973,57.453,16.123,57.441,16.303z"/>
	<path fill="#FFFFFF" d="M65.118,15.565c-0.096,0.456-0.42,0.941-0.971,1.456c-0.084,0.132-0.413,0.306-0.988,0.521
		c-0.66,0.252-1.229,0.359-1.708,0.324c-0.899-0.06-1.606-0.575-2.121-1.546c-0.468-0.899-0.701-2.001-0.701-3.308
		c0-1.414,0.263-2.654,0.791-3.721c0.587-1.174,1.372-1.833,2.355-1.978c0.191-0.024,0.377-0.036,0.557-0.036
		c1.426,0,2.211,0.875,2.355,2.625c0.072,0.803-0.246,1.678-0.953,2.625c-0.767,1.043-1.75,1.774-2.948,2.193
		c0.132,0.479,0.233,0.791,0.306,0.935c0.167,0.3,0.396,0.45,0.683,0.45c0.275,0,0.569-0.108,0.881-0.324
		c0.263-0.18,0.443-0.354,0.539-0.521c0.048-0.024,0.096-0.159,0.144-0.404c0.048-0.246,0.173-0.422,0.377-0.53
		c0.072-0.036,0.156-0.054,0.251-0.054c0.288,0,0.566,0.141,0.836,0.423C65.073,14.976,65.177,15.266,65.118,15.565z M62.295,9.238
		c-0.479,0-0.869,0.341-1.168,1.024c-0.396,0.911-0.557,1.81-0.485,2.697c0.563-0.18,1.084-0.599,1.564-1.258
		s0.719-1.247,0.719-1.762C62.924,9.471,62.714,9.238,62.295,9.238z"/>
	<path fill="#FFFFFF" d="M73.351,8.285c-0.048,0.252-0.276,0.426-0.683,0.521c-0.479,0.12-0.785,0.258-0.917,0.414l-2.931,3.379
		v2.733c0,0.264,0.075,0.53,0.225,0.8c0.149,0.27,0.225,0.477,0.225,0.62c0,0.144-0.042,0.306-0.126,0.485
		c-0.204,0.456-0.617,0.683-1.24,0.683c-0.432,0-0.773-0.138-1.025-0.414c-0.168-0.18-0.251-0.407-0.251-0.683
		c0-0.096,0.012-0.251,0.036-0.467s0.036-0.389,0.036-0.521V9.112c0-0.108-0.048-0.24-0.144-0.396
		c-0.096-0.156-0.144-0.281-0.144-0.377c0-0.072,0.024-0.156,0.072-0.252c0.156-0.288,0.641-0.431,1.456-0.431
		c0.635,0,0.995,0.15,1.079,0.449c0.036,0.12,0.054,0.222,0.054,0.306c0,0.132-0.048,0.234-0.144,0.306
		c-0.096,0.072-0.144,0.144-0.144,0.216l0.036,0.647l1.546-1.636c0.18-0.204,0.368-0.407,0.566-0.611
		c0.198-0.204,0.429-0.317,0.692-0.341c0.407-0.036,0.8,0.054,1.177,0.27c0.378,0.216,0.566,0.498,0.566,0.845
		C73.369,8.165,73.362,8.225,73.351,8.285z"/>
	<path fill="#FFFFFF" d="M79.193,15.044c0,0.839-0.299,1.555-0.898,2.148c-0.6,0.593-1.307,0.89-2.122,0.89
		c-0.513,0-1.043-0.246-1.59-0.737c-0.428-0.396-0.815-0.881-1.161-1.456c-0.3-0.503-0.431-0.821-0.396-0.953
		c0.132-0.3,0.543-0.45,1.235-0.45c0.286,0,0.511,0.042,0.678,0.126c0.285,0.156,0.446,0.354,0.481,0.593
		c0.035,0.276,0.095,0.449,0.178,0.521c0.25,0.383,0.478,0.575,0.682,0.575c0.156,0,0.303-0.105,0.44-0.315
		c0.138-0.209,0.207-0.458,0.207-0.746c0-0.18-0.03-0.36-0.09-0.54s-0.383-0.456-0.971-0.827c-0.702-0.443-1.201-0.833-1.499-1.168
		c-0.511-0.575-0.767-1.246-0.767-2.013c0-0.899,0.261-1.687,0.784-2.364c0.523-0.677,1.19-1.016,2.002-1.016
		c0.839,0,1.48,0.318,1.923,0.953c0.36,0.515,0.509,1.037,0.45,1.564c0.132,0.144,0.198,0.383,0.198,0.719
		c0,0.36-0.132,0.665-0.396,0.917c-0.264,0.251-0.534,0.377-0.809,0.377c-0.408,0-0.761-0.27-1.061-0.809
		c-0.084-0.144-0.126-0.335-0.126-0.575c0-0.108,0.009-0.261,0.027-0.458c0.018-0.198,0.027-0.338,0.027-0.422
		c0-0.312-0.114-0.467-0.342-0.467c-0.348,0-0.521,0.341-0.521,1.024c0,0.695,0.228,1.253,0.683,1.672
		c0.18,0.168,0.569,0.408,1.168,0.719c0.516,0.264,0.881,0.534,1.097,0.809C79.031,13.756,79.193,14.325,79.193,15.044z"/>
	<path fill="#FFFFFF" d="M87.894,15.943c0.072,0.3,0.108,0.492,0.108,0.576c0,0.251-0.147,0.458-0.44,0.62
		c-0.294,0.162-0.608,0.243-0.944,0.243c-0.516,0-0.845-0.192-0.989-0.575c-0.06-0.156-0.09-0.288-0.09-0.396
		c0-0.156,0.069-0.324,0.207-0.503s0.207-0.348,0.207-0.503c0.144-0.623,0.215-1.522,0.215-2.697c0-2.037-0.144-3.08-0.431-3.128
		c-0.216-0.036-0.563,0.306-1.043,1.025c-0.503,0.755-0.923,1.6-1.258,2.535c-0.396,1.103-0.563,2.074-0.503,2.912
		c-0.036,0.072-0.054,0.144-0.054,0.216c0,0.108,0.048,0.261,0.144,0.458c0.096,0.198,0.144,0.356,0.144,0.477
		c0,0.12-0.042,0.233-0.126,0.341c-0.323,0.467-0.647,0.701-0.971,0.701c-0.335,0-0.659-0.264-0.971-0.791
		c-0.18-0.312-0.27-2.104-0.27-5.375c0-1.198,0.03-3.925,0.09-8.18c0-0.072-0.006-0.183-0.018-0.333
		c-0.012-0.15-0.018-0.267-0.018-0.351c0.012-0.12,0.048-0.228,0.108-0.324c0.132-0.251,0.414-0.377,0.845-0.377
		c0.383,0,0.734,0.102,1.051,0.306c0.317,0.204,0.44,0.443,0.369,0.719c-0.012,0.072-0.069,0.156-0.171,0.251
		c-0.102,0.096-0.153,0.192-0.153,0.288v5.789c0.683-1.534,1.69-2.349,3.021-2.445c0.719-0.048,1.294,0.492,1.726,1.618
		c0.396,1.031,0.593,2.295,0.593,3.793C88.271,13.983,88.146,15.021,87.894,15.943z"/>
	<path fill="#FFFFFF" d="M92.37,8.357c0,0.168-0.093,0.428-0.279,0.782c-0.186,0.354-0.279,0.645-0.279,0.872v5.285
		c0,0.24,0.066,0.578,0.198,1.016s0.198,0.74,0.198,0.908c0,0.24-0.096,0.419-0.288,0.54c-0.299,0.191-0.623,0.288-0.971,0.288
		c-0.456,0-0.779-0.156-0.971-0.467c-0.251-0.384-0.377-1.528-0.377-3.434c0-0.456,0.009-1.166,0.027-2.13s0.027-1.669,0.027-2.112
		c0-0.168-0.018-0.387-0.054-0.656s-0.054-0.464-0.054-0.584c0-0.395,0.144-0.737,0.431-1.024c0.12-0.12,0.342-0.18,0.665-0.18
		c0.324,0,0.647,0.051,0.971,0.153c0.324,0.102,0.531,0.219,0.621,0.351S92.37,8.225,92.37,8.357z M92.136,3.97
		c0.036,0.036,0.054,0.096,0.054,0.18c0,0.108-0.036,0.294-0.108,0.558c-0.084,0.323-0.138,0.545-0.162,0.665
		c-0.024,0.12-0.012,0.384,0.036,0.791c0,0.251-0.075,0.417-0.225,0.494c-0.15,0.078-0.339,0.117-0.566,0.117
		c-0.324,0-0.653-0.066-0.989-0.198c-0.408-0.168-0.611-0.39-0.611-0.666c0-0.083,0.036-0.2,0.108-0.35s0.114-0.272,0.126-0.369
		c0.024-0.096,0.024-0.335,0-0.719c-0.024-0.299,0.036-0.503,0.18-0.611c0.191-0.144,0.533-0.215,1.025-0.215
		C91.543,3.647,91.92,3.754,92.136,3.97z"/>
	<path fill="#FFFFFF" d="M100.837,12.492c0,1.27-0.27,2.427-0.809,3.469c-0.6,1.127-1.336,1.69-2.211,1.69
		c-0.491,0-0.995-0.389-1.51-1.168v2.301c0,0.192,0.078,0.438,0.233,0.737c0.156,0.299,0.234,0.527,0.234,0.683
		c0,0.12-0.03,0.24-0.09,0.359c-0.252,0.54-0.743,0.809-1.474,0.809c-0.6,0-0.971-0.216-1.115-0.647
		c-0.048-0.144-0.072-0.282-0.072-0.414s0.039-0.309,0.117-0.53c0.078-0.222,0.117-0.411,0.117-0.566V8.986
		c0-0.132-0.048-0.291-0.144-0.476c-0.096-0.186-0.144-0.339-0.144-0.458c0-0.096,0.023-0.198,0.072-0.306
		c0.144-0.335,0.587-0.503,1.33-0.503c0.467,0,0.779,0.096,0.935,0.288c0.06,0.072,0.09,0.162,0.09,0.27
		c0,0.084-0.03,0.216-0.09,0.396c-0.06,0.18-0.096,0.318-0.108,0.414c0.551-0.791,1.198-1.187,1.941-1.187
		c0.995,0,1.72,0.563,2.175,1.69C100.663,9.987,100.837,11.113,100.837,12.492z M98.572,12.492c0-1.139-0.024-1.864-0.072-2.175
		c-0.12-0.779-0.419-1.168-0.898-1.168c-0.276,0-0.524,0.375-0.746,1.124c-0.222,0.749-0.333,1.489-0.333,2.22
		c0,0.551,0.12,1.198,0.359,1.941c0.24,0.791,0.479,1.187,0.719,1.187c0.288,0,0.527-0.366,0.719-1.097
		C98.488,13.888,98.572,13.21,98.572,12.492z"/>
	<path fill="#FFFFFF" d="M113.062,12.599c0,1.378-0.174,2.499-0.521,3.362c-0.456,1.127-1.181,1.69-2.175,1.69
		c-0.743,0-1.391-0.389-1.941-1.168c0.012,0.096,0.048,0.234,0.108,0.414c0.06,0.18,0.09,0.312,0.09,0.396
		c0,0.108-0.03,0.191-0.09,0.251c-0.156,0.191-0.468,0.288-0.935,0.288c-0.743,0-1.187-0.162-1.33-0.485
		c-0.048-0.108-0.072-0.209-0.072-0.306c0-0.12,0.047-0.272,0.144-0.458c0.096-0.186,0.144-0.344,0.144-0.476V5.858
		c0-0.156-0.039-0.344-0.117-0.566c-0.078-0.222-0.117-0.398-0.117-0.53c0-0.132,0.024-0.27,0.072-0.414
		c0.144-0.431,0.515-0.647,1.115-0.647c0.731,0,1.222,0.27,1.474,0.809c0.06,0.12,0.09,0.24,0.09,0.359
		c0,0.156-0.078,0.384-0.234,0.683c-0.156,0.3-0.233,0.545-0.233,0.737v2.319c0.515-0.791,1.019-1.187,1.51-1.187
		c0.875,0,1.612,0.569,2.211,1.708C112.792,10.172,113.062,11.329,113.062,12.599z M110.688,12.599c0-0.755-0.066-1.432-0.198-2.031
		c-0.168-0.731-0.39-1.097-0.665-1.097c-0.24,0-0.479,0.396-0.719,1.187c-0.24,0.743-0.359,1.391-0.359,1.941
		c0,0.731,0.107,1.457,0.323,2.175c0.228,0.779,0.479,1.168,0.755,1.168c0.587,0,0.881-0.677,0.881-2.031c0-0.156,0-0.377,0-0.665
		C110.694,12.947,110.688,12.731,110.688,12.599z"/>
	<path fill="#FFFFFF" d="M121.043,15.565c-0.096,0.456-0.42,0.941-0.971,1.456c-0.084,0.132-0.413,0.306-0.988,0.521
		c-0.66,0.252-1.229,0.359-1.708,0.324c-0.899-0.06-1.606-0.575-2.121-1.546c-0.468-0.899-0.701-2.001-0.701-3.308
		c0-1.414,0.263-2.654,0.791-3.721c0.587-1.174,1.372-1.833,2.355-1.978c0.191-0.024,0.377-0.036,0.557-0.036
		c1.426,0,2.211,0.875,2.355,2.625c0.072,0.803-0.246,1.678-0.953,2.625c-0.767,1.043-1.75,1.774-2.948,2.193
		c0.132,0.479,0.233,0.791,0.306,0.935c0.167,0.3,0.396,0.45,0.683,0.45c0.275,0,0.569-0.108,0.881-0.324
		c0.263-0.18,0.443-0.354,0.539-0.521c0.048-0.024,0.096-0.159,0.144-0.404c0.048-0.246,0.173-0.422,0.377-0.53
		c0.072-0.036,0.156-0.054,0.251-0.054c0.288,0,0.566,0.141,0.836,0.423C120.998,14.976,121.103,15.266,121.043,15.565z
		 M118.22,9.238c-0.479,0-0.869,0.341-1.168,1.024c-0.396,0.911-0.557,1.81-0.485,2.697c0.563-0.18,1.084-0.599,1.564-1.258
		s0.719-1.247,0.719-1.762C118.85,9.471,118.64,9.238,118.22,9.238z"/>
	<path fill="#FFFFFF" d="M128.539,9.292c-0.096,0-0.246-0.039-0.449-0.117c-0.204-0.078-0.36-0.117-0.468-0.117
		c-0.084,0-0.168,0.018-0.251,0.054l-0.665,0.341v6.148c0,0.228,0.123,0.521,0.368,0.881s0.345,0.647,0.297,0.863
		c-0.06,0.264-0.237,0.473-0.53,0.629c-0.294,0.155-0.608,0.233-0.944,0.233c-0.635,0-1.073-0.282-1.312-0.845
		c-0.072-0.168-0.114-0.701-0.125-1.6c-0.012-0.599-0.006-1.534,0.018-2.804c0.024-1.438,0.036-2.349,0.036-2.732
		c-0.072,0.024-0.192,0.105-0.359,0.243c-0.168,0.138-0.336,0.207-0.503,0.207c-0.132,0-0.3-0.036-0.503-0.108
		c-0.839-0.288-1.258-0.581-1.258-0.881c0-0.072,0.018-0.15,0.054-0.234c0.084-0.191,0.24-0.299,0.467-0.323
		c0.348-0.048,0.558-0.09,0.629-0.126c0.275-0.108,0.779-0.365,1.51-0.773V6.667c0-0.12-0.033-0.279-0.099-0.477
		s-0.099-0.344-0.099-0.44c0-0.108,0.03-0.209,0.09-0.306c0.312-0.479,0.731-0.719,1.258-0.719c0.611,0,1.042,0.24,1.294,0.719
		c0.096,0.192,0.144,0.348,0.144,0.467c0,0.144-0.072,0.294-0.215,0.45c-0.144,0.156-0.216,0.3-0.216,0.432v0.881
		c0.216-0.096,0.455-0.258,0.719-0.486c0.204-0.167,0.378-0.251,0.521-0.251c0.06,0,0.126,0.012,0.198,0.036
		c0.755,0.204,1.133,0.659,1.133,1.366c0,0.228-0.069,0.443-0.207,0.647C128.932,9.19,128.755,9.292,128.539,9.292z"/>
	<path fill="#FFFFFF" d="M143.819,7.638c0.036,0.096,0.054,0.186,0.054,0.27c0,0.192-0.108,0.426-0.324,0.701
		c-0.264,0.324-0.425,0.575-0.485,0.755l-1.978,5.969c-0.06,0.191-0.09,0.419-0.09,0.683c0,0.084,0,0.215,0,0.396
		c0.012,0.168,0.018,0.293,0.018,0.377c0,0.443-0.15,0.773-0.449,0.989c-0.3,0.216-0.642,0.323-1.025,0.323
		c-0.575,0-1.055-0.215-1.438-0.647c-0.192-0.216-0.288-0.461-0.288-0.737c0-0.408-0.012-0.666-0.036-0.773l-1.079-3.991
		l-1.042,3.595c-0.036,0.132-0.066,0.384-0.09,0.755c-0.024,0.3-0.09,0.539-0.197,0.719c-0.456,0.743-1.013,1.115-1.672,1.115
		c-0.228,0-0.438-0.066-0.629-0.198c-0.24-0.156-0.384-0.396-0.432-0.719c-0.048-0.323-0.096-0.641-0.144-0.953l-1.582-6.148
		c-0.036-0.156-0.144-0.443-0.324-0.863c-0.144-0.323-0.216-0.599-0.216-0.827c0-0.156,0.03-0.312,0.09-0.467
		c0.108-0.335,0.54-0.503,1.294-0.503c0.419,0,0.701,0.06,0.845,0.18c0.18,0.156,0.275,0.408,0.288,0.755
		c0.012,0.528,0.024,0.815,0.036,0.863l1.079,4.315l1.51-4.422c0.024-0.084,0.036-0.168,0.036-0.252
		c0-0.072-0.015-0.177-0.045-0.314c-0.03-0.138-0.045-0.243-0.045-0.314c0-0.264,0.144-0.468,0.431-0.611
		c0.24-0.132,0.503-0.198,0.791-0.198c0.396,0,0.725,0.096,0.989,0.288c0.335,0.24,0.521,0.548,0.557,0.926
		c0.036,0.377,0.066,0.752,0.09,1.124l1.079,4.314l1.726-5.177c0.024-0.072,0.036-0.15,0.036-0.234c0-0.096-0.018-0.225-0.054-0.386
		c-0.036-0.162-0.054-0.285-0.054-0.369c0-0.108,0.024-0.209,0.072-0.306c0.18-0.324,0.653-0.485,1.42-0.485
		C143.262,7.152,143.688,7.314,143.819,7.638z"/>
	<path fill="#FFFFFF" d="M150.758,15.565c-0.096,0.456-0.42,0.941-0.971,1.456c-0.084,0.132-0.413,0.306-0.988,0.521
		c-0.66,0.252-1.229,0.359-1.708,0.324c-0.899-0.06-1.606-0.575-2.121-1.546c-0.468-0.899-0.701-2.001-0.701-3.308
		c0-1.414,0.263-2.654,0.791-3.721c0.587-1.174,1.372-1.833,2.355-1.978c0.191-0.024,0.377-0.036,0.557-0.036
		c1.426,0,2.211,0.875,2.355,2.625c0.072,0.803-0.246,1.678-0.953,2.625c-0.767,1.043-1.75,1.774-2.948,2.193
		c0.132,0.479,0.233,0.791,0.306,0.935c0.167,0.3,0.396,0.45,0.683,0.45c0.275,0,0.569-0.108,0.881-0.324
		c0.263-0.18,0.443-0.354,0.539-0.521c0.048-0.024,0.096-0.159,0.144-0.404c0.048-0.246,0.173-0.422,0.377-0.53
		c0.072-0.036,0.156-0.054,0.251-0.054c0.288,0,0.566,0.141,0.836,0.423C150.713,14.976,150.818,15.266,150.758,15.565z
		 M147.936,9.238c-0.479,0-0.869,0.341-1.168,1.024c-0.396,0.911-0.557,1.81-0.485,2.697c0.563-0.18,1.084-0.599,1.564-1.258
		s0.719-1.247,0.719-1.762C148.565,9.471,148.355,9.238,147.936,9.238z"/>
	<path fill="#FFFFFF" d="M158.524,15.565c-0.096,0.456-0.42,0.941-0.971,1.456c-0.084,0.132-0.413,0.306-0.988,0.521
		c-0.66,0.252-1.229,0.359-1.708,0.324c-0.899-0.06-1.606-0.575-2.121-1.546c-0.468-0.899-0.701-2.001-0.701-3.308
		c0-1.414,0.263-2.654,0.791-3.721c0.587-1.174,1.372-1.833,2.355-1.978c0.191-0.024,0.377-0.036,0.557-0.036
		c1.426,0,2.211,0.875,2.355,2.625c0.072,0.803-0.246,1.678-0.953,2.625c-0.767,1.043-1.75,1.774-2.948,2.193
		c0.132,0.479,0.233,0.791,0.306,0.935c0.167,0.3,0.396,0.45,0.683,0.45c0.275,0,0.569-0.108,0.881-0.324
		c0.263-0.18,0.443-0.354,0.539-0.521c0.048-0.024,0.096-0.159,0.144-0.404c0.048-0.246,0.173-0.422,0.377-0.53
		c0.072-0.036,0.156-0.054,0.251-0.054c0.288,0,0.566,0.141,0.836,0.423C158.479,14.976,158.584,15.266,158.524,15.565z
		 M155.702,9.238c-0.479,0-0.869,0.341-1.168,1.024c-0.396,0.911-0.557,1.81-0.485,2.697c0.563-0.18,1.084-0.599,1.564-1.258
		s0.719-1.247,0.719-1.762C156.331,9.471,156.121,9.238,155.702,9.238z"/>
	<path fill="#FFFFFF" d="M168.124,16.303c-0.024,0.264-0.198,0.488-0.521,0.674c-0.323,0.186-0.683,0.279-1.079,0.279
		c-0.587,0-0.989-0.186-1.204-0.557c0.096-3.691-0.012-5.561-0.324-5.609c-0.3-0.048-1.031,1.606-2.193,4.961
		c0,0.36,0,0.719,0,1.079c-0.012,0.432-0.129,0.737-0.351,0.917s-0.458,0.27-0.71,0.27c-0.431,0-0.893-0.233-1.384-0.701
		c-0.144-0.12-0.222-1.03-0.233-2.732c0.012,1.043,0.018-0.893,0.018-5.807c0-0.108-0.012-0.254-0.036-0.44
		c-0.024-0.186-0.036-0.32-0.036-0.404c0-0.228,0.06-0.425,0.18-0.593c0.144-0.216,0.372-0.324,0.683-0.324
		c0.324,0,0.662,0.099,1.016,0.297c0.353,0.198,0.566,0.386,0.638,0.566c0.047,0.12,0.072,0.24,0.072,0.36s-0.048,0.288-0.144,0.503
		c-0.096,0.215-0.144,0.396-0.144,0.539v2.481c0.755-1.606,1.324-2.667,1.708-3.182c0.683-0.887,1.456-1.3,2.319-1.24
		c0.515,0.036,0.881,0.516,1.097,1.438c0.167,0.695,0.257,1.726,0.27,3.092c0,1.079,0,2.157,0,3.236
		c0.024,0.084,0.108,0.233,0.251,0.449C168.1,15.973,168.135,16.123,168.124,16.303z"/>
	<path fill="#FFFFFF" d="M171.935,15.422c0.023,0.144,0.012,0.312-0.036,0.503c-0.096,0.299-0.15,0.467-0.162,0.503
		c-0.012,0.192-0.027,0.393-0.045,0.603c-0.018,0.21-0.084,0.375-0.197,0.494c-0.114,0.12-0.339,0.18-0.674,0.18
		c-0.336,0-0.629-0.066-0.881-0.198c-0.3-0.144-0.456-0.341-0.467-0.593c0-0.107,0.033-0.239,0.099-0.395s0.108-0.276,0.126-0.36
		c0.018-0.083,0.021-0.312,0.009-0.683c0-0.275,0.069-0.479,0.207-0.611c0.138-0.131,0.356-0.198,0.656-0.198
		c0.312,0,0.605,0.069,0.881,0.207C171.725,15.011,171.886,15.194,171.935,15.422z M172.474,8.424c0.024,0.143,0.012,0.31-0.036,0.5
		c-0.096,0.298-0.15,0.464-0.162,0.5c-0.012,0.191-0.027,0.391-0.045,0.599s-0.084,0.375-0.198,0.5
		c-0.114,0.125-0.339,0.188-0.674,0.188s-0.629-0.065-0.881-0.197c-0.299-0.155-0.456-0.357-0.467-0.607
		c0-0.107,0.033-0.238,0.099-0.394c0.065-0.155,0.108-0.274,0.125-0.357c0.018-0.083,0.021-0.31,0.009-0.679
		c0-0.274,0.069-0.477,0.207-0.608c0.138-0.131,0.356-0.196,0.656-0.196c0.312,0,0.605,0.068,0.881,0.206
		C172.264,8.016,172.426,8.198,172.474,8.424z"/>
</g>
</svg>
